Наука и данные - Введение в библиотеку highcharter
…
<type_of_chart> представляет собой строку для указания типа диаграммы; это значение может быть: линия, сплайн, область, тепловая карта, и т.д;

<aesthetics> – используемое отображение для отрисовки данных;

hcaes работает подобно aes в ggplot2;

... – другие параметры настройки диаграммы.

Географические карты в highcharter

Покажем, как можно визуализировать простейшие географические данные в highcharter. В качестве примера визуализируем на карте Российской Федерации города, население которых превышает 300 000 чел. Актуальные данные по городам РФ можно получить с сайта ИНИД1. После простейшей предобработки таблица с данными выглядит следующим образом.

cities_300 

# A tibble: 65 × 4
   name             population   lon   lat
   <chr>                 <dbl> <dbl> <dbl>
 1 Калининград          467289  20.4  54.7
 2 Пенза                522317  45    53.2
 3 Владимир             356168  40.4  56.1
 4 Иркутск              623479 104.   52.3
 5 Оренбург             561686  55.1  51.8
 6 Архангельск          348343  40.5  64.5
 7 Саранск              318578  45.2  54.2
 8 Набережные Челны     524444  52.4  55.7
 9 Ярославль            603961  39.9  57.6
10 Чебоксары            492331  47.2  56.1
# ℹ 55 more rows
…
Другой пример построения карт показывает как можно визуализировать глобальную карту. В качестве примера используем данные Global Climate Change Data (источник: Berkeley Earth).

AverageTemperature 

# A tibble: 169 × 3
   country              aveT iso3 
   <chr>               <dbl> <chr>
 1 Afghanistan            15 AFG  
 2 Albania                14 ALB  
 3 Algeria                24 DZA  
 4 Andorra                12 ADO  
 5 Antigua and Barbuda    27 ATG  
 6 Argentina              15 ARG  
 7 Armenia                10 ARM  
 8 Australia              22 AUS  
 9 Austria                 7 AUT  
10 Azerbaijan             13 AZE  
# ℹ 159 more rows
…
Примеры применения различных тем в highcharter

Загрузим данные GISS Surface Temperature Analysis по средним температурам для оценки глобального изменения температуры земной поверхности за последние несколько лет в г. Красноярске. Графики и таблицы обновлялись примерно в середине каждого месяца с использованием текущих файлов данных NOAA GHCN v4 для метеорологических станций.

Нас будут интересовать средние температуры в каждом месяце начиная с 2013 года.

weather_long

# A tibble: 72 × 3
    year month temp_ave
   <dbl> <fct>    <dbl>
 1  2013 ЯНВ     -16.3 
 2  2013 ФЕВ     -14.3 
 3  2013 МАР      -6.45
 4  2013 АПР       4.71
 5  2013 МАЙ       8.81
 6  2013 ИЮН      15.7 
 7  2013 ИЮЛ      18.1 
 8  2013 АВГ      16.5 
 9  2013 СЕН       7.9 
10  2013 ОКТ       2.4 
# ℹ 62 more rows
…
3D-диаграммы

Довольно эффектно выглядят 3D-диаграммы в highcharter. Покажем, как выглядит диаграмма средних температур на основе набора данных weather_long выше в г. Красноярске за 3 выбранных года.

# данные
weather_hc <-
weather_long |>
  filter(year %in% c("2016","2017", "2018")) |>
  group_by(year, month) |>
  summarise(ave = round(mean(temp_ave, na.rm = TRUE), 1)) |>
  ungroup()

weather_hc

# A tibble: 36 × 3
    year month   ave
   <dbl> <fct> <dbl>
 1  2016 ЯНВ   -21.8
 2  2016 ФЕВ    -8.6
 3  2016 МАР    -2.4
 4  2016 АПР     5.1
 5  2016 МАЙ     9  
 6  2016 ИЮН    18.5
 7  2016 ИЮЛ    20.7
 8  2016 АВГ    17.2
 9  2016 СЕН    12.2
10  2016 ОКТ    -3.8
# ℹ 26 more rows
…
