Наука и данные - Визуализация трехмерных моделей земной поверхности
…
Рисунок 10: Модель Сан-Франциско с нанесенными OSM-дорогами

Нанесение дополнительных слоев на 3D-модели

Несомненно, на модели можно накладывать и другие слои с исходными данными или результатами моделирования, что делает технологию весьма привлекательной (см., например, статью Adding Open Street Map Data to Rayshader Maps). Приведем еще один пример, сделаем слой на 3D-модели, показывающий происшествия, на которые отреагировала пожарная служба Сан-Франциско. Отметим, соответствующий набор данных также содержит географические координаты.

data_sf |>
  dplyr::select(`Incident Date`, point)

# A tibble: 616,630 × 2
   `Incident Date`     point                            
   <dttm>              <chr>                            
 1 2008-04-01 00:00:00 POINT (-122.41837339 37.74208979)
 2 2008-04-01 00:00:00 POINT (-122.39489 37.756291)     
 3 2008-04-01 00:00:00 POINT (-122.407468 37.78008)     
 4 2008-04-01 00:00:00 POINT (-122.42684908 37.77612642)
 5 2008-04-01 00:00:00 POINT (-122.4863941 37.77428492) 
 6 2008-04-01 00:00:00 POINT (-122.4481912 37.7597267)  
 7 2008-04-01 00:00:00 POINT (-122.405223 37.788694)    
 8 2008-04-01 00:00:00 POINT (-122.416457 37.739056)    
 9 2008-04-01 00:00:00 POINT (-122.392082 37.781846)    
10 2008-04-01 00:00:00 POINT (-122.46678342 37.75300898)
# ℹ 616,620 more rows
…
points_sf

Simple feature collection with 33260 features and 2 fields
Geometry type: POINT
Dimension:     XY
Bounding box:  xmin: -13685560 ymin: 0 xmax: 13627530 ymax: 4555811
Projected CRS: WGS 84 / Pseudo-Mercator
# A tibble: 33,260 × 3
   `Incident Date`      year            geometry
 * <dttm>              <dbl>         <POINT [m]>
 1 2022-01-16 00:00:00  2022 (-13625484 4548073)
 2 2022-01-16 00:00:00  2022 (-13626605 4547332)
 3 2022-01-21 00:00:00  2022 (-13625214 4547874)
 4 2022-01-21 00:00:00  2022 (-13629079 4549058)
 5 2022-01-23 00:00:00  2022 (-13628711 4551584)
 6 2022-01-30 00:00:00  2022 (-13627494 4538682)
 7 2022-02-08 00:00:00  2022 (-13625338 4547751)
 8 2022-02-08 00:00:00  2022 (-13627882 4549346)
 9 2022-02-08 00:00:00  2022 (-13627827 4546331)
10 2022-02-10 00:00:00  2022 (-13627366 4548730)
# ℹ 33,250 more rows
…
