Наука и данные - Использование машинного обучения для анализа временных рядов
…
# моделирование
library(tidymodels)
library(modeltime)
library(timetk)

# future! 🚀
library(future)
plan(sequential)

Рассмотрим фондовые данные, представляющие собой среднюю суточную температуру воздуха в г. Красноярске . Исходные данные содержат 1 826 записей и имеют две переменных: date и t_avg, которые отвечают за дату наблюдения и среднюю температуру воздуха.

temp_KRSK

# A tibble: 1,826 × 2
   date        t_avg
   <date>      <dbl>
 1 2012-02-29 -20.6 
 2 2012-03-01 -18.3 
 3 2012-03-02 -15   
 4 2012-03-03  -8.89
 5 2012-03-04  -8.89
 6 2012-03-05 -15.6 
 7 2012-03-06 -17.8 
 8 2012-03-07 -15.6 
 9 2012-03-08 -16.7 
10 2012-03-09 -15.6 
# ℹ 1,816 more rows
…
Рисунок 1: Исходные данные по температурам воздуха в Красноярске за 2010-2014 гг.

Из графика видно, что данные имеют периодический характер. Составим временной ряд и исследуем его некоторые характеристики.

Код

library(feasts)
library(tsibble)

(temp_ts <- as_tsibble(temp_KRSK, index = date))

# A tsibble: 1,826 x 2 [1D]
   date       t_avg
   <date>     <dbl>
 1 2010-01-01 -29.4
 2 2010-01-02 -34.4
 3 2010-01-03 -37.8
 4 2010-01-04 -36.7
 5 2010-01-05 -36.7
 6 2010-01-06 -36.1
 7 2010-01-07 -35.6
 8 2010-01-08 -32.8
 9 2010-01-09 -29.4
10 2010-01-10 -33.9
# ℹ 1,816 more rows

Построим разложение временного ряда на несколько более простых компонентов, используя аддитивную модель, как STL-разложение для одногодичного окна.

dcmp <- temp_ts |>
  model(STL(t_avg ~ trend(window = 365)))

components(dcmp)

# A dable: 1,826 x 8 [1D]
# Key:     .model [1]
# :        t_avg = trend + season_year + season_week + remainder
   .model date       t_avg trend season_week season_year remainder season_adjust
   <chr>  <date>     <dbl> <dbl>       <dbl>       <dbl>     <dbl>         <dbl>
 1 STL(t… 2010-01-01 -29.4 -5.44       3.98        -19.9     -8.12         -13.6
 2 STL(t… 2010-01-02 -34.4 -5.40      -0.344       -22.4     -6.32         -11.7
 3 STL(t… 2010-01-03 -37.8 -5.36      -2.35        -21.3     -8.76         -14.1
 4 STL(t… 2010-01-04 -36.7 -5.32      -2.70        -21.4     -7.27         -12.6
 5 STL(t… 2010-01-05 -36.7 -5.29      -2.27        -24.2     -4.88         -10.2
 6 STL(t… 2010-01-06 -36.1 -5.25       0.707       -25.7     -5.85         -11.1
 7 STL(t… 2010-01-07 -35.6 -5.21       2.86        -25.1     -8.13         -13.3
 8 STL(t… 2010-01-08 -32.8 -5.17       3.96        -23.0     -8.56         -13.7
 9 STL(t… 2010-01-09 -29.4 -5.13      -0.376       -16.8     -7.13         -12.3
10 STL(t… 2010-01-10 -33.9 -5.10      -2.19        -16.8     -9.78         -14.9
# ℹ 1,816 more rows
…
6. Модель MARS

# Модель 6: MARS
# Пример "рецепта" предобработки
recipe_spec <- recipe(t_avg ~ date, data = training(splits)) |>
  step_date(date, features = "month", ordinal = FALSE) |>
  step_mutate(date_num = as.numeric(date)) |>
  step_normalize(date_num) |>
  step_rm(date)

# вид "рецепта"
recipe_spec |> prep() |> juice()

# A tibble: 1,645 × 3
   t_avg date_month date_num
   <dbl> <fct>         <dbl>
 1 -29.4 Jan           -1.73
 2 -34.4 Jan           -1.73
 3 -37.8 Jan           -1.73
 4 -36.7 Jan           -1.72
 5 -36.7 Jan           -1.72
 6 -36.1 Jan           -1.72
 7 -35.6 Jan           -1.72
 8 -32.8 Jan           -1.72
 9 -29.4 Jan           -1.71
10 -33.9 Jan           -1.71
# ℹ 1,635 more rows
…
8. Модель glmnet

# Модель 8: glmnet
# recipe
recipe_spec <- recipe(t_avg ~ date, training(splits)) |>
  step_timeseries_signature(date) |>
  step_rm(contains("am.pm"), contains("hour"), contains("minute"),
          contains("second"), contains("xts")) |>
  step_fourier(date, period = 365, K = 5) |>
  step_dummy(all_nominal())

# просмотр "рецепта"
recipe_spec |> prep() |> juice()

# A tibble: 1,645 × 47
   date       t_avg date_index.num date_year date_year.iso date_half
   <date>     <dbl>          <dbl>     <int>         <int>     <int>
 1 2010-01-01 -29.4     1262304000      2010          2009         1
 2 2010-01-02 -34.4     1262390400      2010          2009         1
 3 2010-01-03 -37.8     1262476800      2010          2009         1
 4 2010-01-04 -36.7     1262563200      2010          2010         1
 5 2010-01-05 -36.7     1262649600      2010          2010         1
 6 2010-01-06 -36.1     1262736000      2010          2010         1
 7 2010-01-07 -35.6     1262822400      2010          2010         1
 8 2010-01-08 -32.8     1262908800      2010          2010         1
 9 2010-01-09 -29.4     1262995200      2010          2010         1
10 2010-01-10 -33.9     1263081600      2010          2010         1
# ℹ 1,635 more rows
# ℹ 41 more variables: date_quarter <int>, date_month <int>, date_day <int>,
#   date_wday <int>, date_mday <int>, date_qday <int>, date_yday <int>,
#   date_mweek <int>, date_week <int>, date_week.iso <int>, date_week2 <int>,
#   date_week3 <int>, date_week4 <int>, date_mday7 <int>, date_sin365_K1 <dbl>,
#   date_cos365_K1 <dbl>, date_sin365_K2 <dbl>, date_cos365_K2 <dbl>,
#   date_sin365_K3 <dbl>, date_cos365_K3 <dbl>, date_sin365_K4 <dbl>, …
…
refit_tbl <- calibration_tbl |>
  filter(.model_id %not_in% c(1:4, 6)) |>
  modeltime_refit(data = temp_KRSK)

Визуализируем прогноз на 1 год вперед, изобразив при этом и истинные значения.

# истинные данные с 1 января по 31 декабря 2015 года
temp_2015 <- temp_raw |>
  dplyr::filter(between(date, as.Date("2015-01-01"), 
                              as.Date("2015-12-31"))) |>
  rename(.index = date)

temp_2015

# A tibble: 365 × 2
   .index      t_avg
   <date>      <dbl>
 1 2015-01-01  -2.78
 2 2015-01-02  -6.67
 3 2015-01-03 -19.4 
 4 2015-01-04 -18.3 
 5 2015-01-05  -7.78
 6 2015-01-06  -5.56
 7 2015-01-07  -5   
 8 2015-01-08  -4.44
 9 2015-01-09  -1.11
10 2015-01-10  -6.11
# ℹ 355 more rows
…
