Наука и данные - Анализ графа дорожной сети
…
net <- as_sfnetwork(streets_double_lanes) |>
  # географическая проекция
  st_transform(4326)

Получившийся граф, который соответствует дорожной сети, представляет собой tidy-формат с сохранением геометрических свойств, где каждое наблюдение имеет свое местоположение в географическом пространстве.

net

# A sfnetwork with 32911 nodes and 79928 edges
#
# CRS:  EPSG:4326 
#
# A directed multigraph with 12117 components with spatially explicit edges
#
# A tibble: 32,911 × 1
                 geom
          <POINT [°]>
1 (93.00469 56.06684)
2 (92.99103 56.06949)
3 (93.01373 56.06508)
4 (93.02202 56.06271)
5 (93.02498 56.06045)
6  (93.0251 56.06319)
# ℹ 32,905 more rows
#
# A tibble: 79,928 × 6
   from    to osm_id   oneway highway                                       geom
  <int> <int> <chr>    <chr>  <chr>                             <LINESTRING [°]>
1     1     2 25375397 <NA>   primary (93.00469 56.06684, 93.00009 56.06774, 92…
2     3     4 25375423 <NA>   primary (93.01373 56.06508, 93.01632 56.06459, 93…
3     1     3 25375424 <NA>   primary     (93.00469 56.06684, 93.01373 56.06508)
# ℹ 79,925 more rows
…
Функция edge_azimuth() вычисляет угол в радианах между последовательностями точек, а именно: между прямой линией от начальной точки ребра, указывающей на север, и направлением от начальной точки до конечной точки ребра.

# вычисление азимутального направления
azimuth_net <- net |>
  activate("edges") |>
  morph(to_spatial_transformed, 4326) |>
  mutate(azimuth = edge_azimuth()) |>
  unmorph()

azimuth_net |>
  pull(azimuth) |> 
  as_tibble()

# A tibble: 79,928 × 1
     value
     [rad]
 1 -1.24  
 2  2.04  
 3  1.91  
 4  0.0250
 5 -0.516 
 6  2.43  
 7 -1.93  
 8  2.87  
 9  1.58  
10  1.40  
# ℹ 79,918 more rows
…
