Наука и данные - Анализ географически распределенных объектов городской инфраструктуры
…
buildings_multipolygons <- buildings_osm %>% 
  .$osm_multipolygons

buildings <- bind_rows(buildings_polygons, 
                       buildings_multipolygons)

Рассмотрим количество объектов, которые принадлежат улицам города.

count(buildings |> 
        st_drop_geometry() |> 
        as_tibble(), 
      addr.street, sort = TRUE) |>
  na.omit()

# A tibble: 1,016 × 2
   addr.street                                  n
   <chr>                                    <int>
 1 проспект им. газеты Красноярский Рабочий   457
 2 Центральная улица                          401
 3 Советская улица                            337
 4 Лесная улица                               334
 5 улица Калинина                             310
 6 улица 60 лет Октября                       232
 7 улица Карла Маркса                         231
 8 Новая улица                                221
 9 Базайская улица                            220
10 улица Березина                             218
# ℹ 1,006 more rows
…
