Наука и данные - Интерактивные таблицы средствами языка R
…
Код для построения рассмотренной выше таблицы по пожарам довольно большой, поэтому вместо полного листинга приведем основные идеи и принципы создания интерактивных таблиц в reactable на основе небольших примеров описанных на странице библиотеки.

Загрузим необходимые библиотеки.

library(tidyverse)
library(magrittr)
library(reactable)

Базовая таблица

Пусть модельные данные представляют собой упрощенную таблицу, содержащую название региона, федерального округа, данные за определенный период и столбец с некоторыми суммарными значениями.

fires_reactable

# A tibble: 85 × 7
   regions                      FO    `2017` `2018` `2019` `2020` total
   <chr>                        <chr>  <dbl>  <dbl>  <dbl>  <dbl> <dbl>
 1 Еврейская автономная область ДФО       95    109    137     91   431
 2 Приморский край              ДФО       74     79     98     51   301
 3 Хабаровский край             ДФО       76     76     89     59   299
 4 Забайкальский край           ДФО       68     62     95     65   289
 5 Псковская область            СЗФО      68     63     92     66   289
 6 Магаданская область          ДФО       75     67     65     58   266
 7 Амурская область             ДФО       64     77     68     51   261
 8 Республика Калмыкия          ЮФО       58     66     67     65   255
 9 Орловская область            ЦФО       50     50     58     67   225
10 Алтайский край               СФО       52     54     62     56   224
# ℹ 75 more rows
…
